{
  "aa": "Афарська", 
  "ab": "Абхазька", 
  "ae": "Авестійська", 
  "af": "Aфрикаанс", 
  "ak": "Акан", 
  "am": "Амхарська", 
  "an": "Арагонська", 
  "ar": "Арабська", 
  "as": "Ассамська", 
  "av": "Aварська", 
  "ay": "Аймарська", 
  "az": "Азербайджанська", 
  "ba": "Башкирська", 
  "be": "Білоруська", 
  "bg": "Болгарська", 
  "bh": "Біхарська", 
  "bi": "Біслама", 
  "bm": "Бамбара", 
  "bn": "Бенгальська мова", 
  "bo": "Тибетські мови", 
  "br": "Бретонська", 
  "bs": "Боснійська", 
  "ca": "Каталонська", 
  "ce": "Чеченська", 
  "ch": "Чаморро", 
  "co": "Корсиканська", 
  "cr": "Крі", 
  "cs": "Чеська", 
  "cu": "Старослов'янська", 
  "cv": "Чуваська", 
  "cy": "Валлійська", 
  "da": "Датська", 
  "de": "Німецька", 
  "dv": "Дівехі", 
  "dz": "Дзонгкха", 
  "ee": "Еве", 
  "el": "Новогрецька", 
  "en": "Англійська", 
  "eo": "Есперанто", 
  "es": "Іспанська", 
  "et": "Естонська", 
  "eu": "Баскська", 
  "fa": "Перська", 
  "ff": "Фула", 
  "fi": "Фінська", 
  "fj": "Фіджійська", 
  "fo": "Фарерська", 
  "fr": "Французька", 
  "fy": "Західнофризька", 
  "ga": "Ірландська", 
  "gd": "Шотландська гегельська мова", 
  "gl": "Галісійська", 
  "gn": "Гуарані", 
  "gu": "Мова гуджараті", 
  "gv": "Менська мова", 
  "ha": "Хауса", 
  "he": "Іврит", 
  "hi": "Гінді", 
  "ho": "Хірі Моту", 
  "hr": "Хорватська", 
  "ht": "Гаїтянська креольська мова", 
  "hu": "Угорська", 
  "hy": "Вірменська", 
  "hz": "Гереро", 
  "ia": "Інтерлінгва", 
  "id": "Індонезійська", 
  "ie": "Інтерлінгвe", 
  "ig": "Ігбо", 
  "ii": "Носу", 
  "ik": "Інупіак", 
  "io": "Ідо", 
  "is": "Ісландська", 
  "it": "Італійська", 
  "iu": "Інуктитут", 
  "ja": "Японська", 
  "jv": "Яванська", 
  "ka": "Грузинська", 
  "kg": "Конго", 
  "ki": "Кікуйю", 
  "kj": "Квенська", 
  "kk": "Казахська", 
  "kl": "Гренландська", 
  "km": "Кхмерська", 
  "kn": "Каннада", 
  "ko": "Корейська", 
  "kr": "Канурі", 
  "ks": "Кашмірська", 
  "ku": "Курдська", 
  "kv": "Комі", 
  "kw": "Корнуольська", 
  "ky": "Киргизька", 
  "la": "Латинська", 
  "lb": "Люксенбурзька", 
  "lg": "Луганда", 
  "li": "Лімбурзька", 
  "ln": "Лінгала", 
  "lo": "Лаоська", 
  "lt": "Литовська", 
  "lu": "Луба-катанга", 
  "lv": "Латвійська", 
  "mg": "Малагасійська", 
  "mh": "Маршальська", 
  "mi": "Маорі", 
  "mk": "Македонська", 
  "ml": "Малаяламська", 
  "mn": "Монгольська", 
  "mr": "Маратхі", 
  "ms": "Малайська", 
  "mt": "Мальтійська", 
  "my": "Бірманська", 
  "na": "Науруанська", 
  "nb": "Букмол", 
  "nd": "Північна мова Ндебеле", 
  "ne": "Непальська", 
  "ng": "Ндонга", 
  "nl": "Фламандська", 
  "nn": "Нюношк", 
  "no": "Норвезька", 
  "nr": "Південна ндебеле", 
  "nv": "Навахо", 
  "ny": "Чева", 
  "oc": "Окситанська", 
  "oj": "Оджибве", 
  "om": "Оромо", 
  "or": "Орія", 
  "os": "Осетинська", 
  "pa": "Пенджабська", 
  "pi": "Палі", 
  "pl": "Польська", 
  "ps": "Пушту", 
  "pt": "Португальська", 
  "qu": "Кучуа", 
  "rm": "Ретороманська", 
  "rn": "Кірунді", 
  "ro": "Румунська", 
  "ru": "Російська", 
  "rw": "Руандійська мова", 
  "sa": "Санскрит", 
  "sc": "Сардинська", 
  "sd": "Синдхі", 
  "se": "Північносаамська мова", 
  "sg": "Санго", 
  "si": "Сингальська", 
  "sk": "Словацька", 
  "sl": "Словенська", 
  "sm": "Самоанська", 
  "sn": "Шона", 
  "so": "Сомалійська", 
  "sq": "Албанська", 
  "sr": "Сербська", 
  "ss": "Свазі", 
  "st": "Сесото", 
  "su": "Суданська", 
  "sv": "Шведська", 
  "sw": "Суахілі", 
  "ta": "Тамільська", 
  "te": "Телугу", 
  "tg": "Таджицька", 
  "th": "Тайська", 
  "ti": "Тигринья", 
  "tk": "Туркменська", 
  "tl": "Таґальська", 
  "tn": "Тсвана", 
  "to": "Тонганська", 
  "tr": "Турецька", 
  "ts": "Цонга", 
  "tt": "Татарська", 
  "tw": "Чві", 
  "ty": "Таїтянська", 
  "ug": "Уйгурська", 
  "uk": "Українська", 
  "ur": "Урду", 
  "uz": "Узбецька", 
  "ve": "Венда", 
  "vi": "В'єтнамська", 
  "vo": "Волапюк", 
  "wa": "Валлонська", 
  "wo": "Волофська", 
  "xh": "Коса", 
  "yi": "Їдиш", 
  "yo": "Йоруба", 
  "za": "Чжуанська", 
  "zh": "Китайська", 
  "zu": "Зулуська"
}
